{
  "development": {
    "username": "postgres",
    "password": "nabhan",
    "database": "server_pokemon",
    "host": "127.0.0.1",
    "dialect": "postgres"
  },
  "test": {
    "username": "postgres",
    "password": "nabhan",
    "database": "server_pokemon_test",
    "host": "127.0.0.1",
    "dialect": "postgres"
  },
  "production": {
    "username": "fzbhfvxmuzseaa",
    "password": "f9cb6fdd7c691ccb5b6afb2729835ad5c796a2cf86cfc06f72fffd95e6be5ba1",
    "database": "dat81qj16qs6c4",
    "host": "ec2-23-21-4-7.compute-1.amazonaws.com",
    "dialect": "postgres",
    "dialectOptions": {
      "ssl": {
        "require": true,
        "rejectUnauthorized": false
      }
    }
  }
}
